<svg xmlns="http://www.w3.org/2000/svg" width="40.85" height="34.151" viewBox="0 0 40.85 34.151">
  <path id="ic_attach_file_24px" d="M15.806,8.319V27.452a6.655,6.655,0,1,1-13.31,0V6.655a4.159,4.159,0,1,1,8.319,0v17.47a1.664,1.664,0,1,1-3.328,0V8.319h-2.5V24.125a4.159,4.159,0,1,0,8.319,0V6.655A6.655,6.655,0,1,0,0,6.655v20.8a9.151,9.151,0,1,0,18.3,0V8.319Z" transform="translate(40.85 18.302) rotate(120)"/>
</svg>
